%YAML 1.1
%TAG !u! tag:unity3d.com,2011:
--- !u!162 &1
EditorUserSettings:
  m_ObjectHideFlags: 0
  serializedVersion: 4
  m_ConfigSettings:
    RecentlyUsedSceneGuid-0:
      value: 550356540602510d5b560a2413775d1314161e7e7c7e7635782b1e60b0e6646f
      flags: 0
    RecentlyUsedSceneGuid-1:
      value: 565455035d54500a5f0c552041215e444e154878287e7662287f4561b1b7606b
      flags: 0
    RecentlyUsedSceneGuid-2:
      value: 5a08575f5207595a0f5d59741173094444164f7d7d2a23317c7a4465bbe1646d
      flags: 0
    vcSharedLogLevel:
      value: 0d5e400f0650
      flags: 0
  m_VCAutomaticAdd: 1
  m_VCDebugCom: 0
  m_VCDebugCmd: 0
  m_VCDebugOut: 0
  m_SemanticMergeMode: 2
  m_DesiredImportWorkerCount: 5
  m_StandbyImportWorkerCount: 2
  m_IdleImportWorkerShutdownDelay: 60000
  m_VCShowFailedCheckout: 1
  m_VCOverwriteFailedCheckoutAssets: 1
  m_VCProjectOverlayIcons: 1
  m_VCHierarchyOverlayIcons: 1
  m_VCOtherOverlayIcons: 1
  m_VCAllowAsyncUpdate: 0
  m_ArtifactGarbageCollection: 1
